^C:\Users\jisuc\source\repos\SAD\SAD\SAD.vcxproj
C:\Users\jisuc\source\repos\SAD\x64\Release\SAD.ipdb
C:\Users\jisuc\source\repos\SAD\x64\Release\SAD.iobj
^C:\Users\jisuc\source\repos\SAD\SAD\SAD.vcxproj
C:\Users\jisuc\source\repos\SAD\x64\Release\SAD.ipdb
C:\Users\jisuc\source\repos\SAD\x64\Release\SAD.iobj
^C:\Users\jisuc\source\repos\SAD\SAD\SAD.vcxproj
C:\Users\jisuc\source\repos\SAD\x64\Release\SAD.ipdb
C:\Users\jisuc\source\repos\SAD\x64\Release\SAD.iobj
^C:\Users\jisuc\source\repos\SAD\SAD\SAD.vcxproj
C:\Users\jisuc\source\repos\SAD\x64\Release\SAD.ipdb
C:\Users\jisuc\source\repos\SAD\x64\Release\SAD.iobj
^C:\Users\jisuc\source\repos\SAD\SAD\SAD.vcxproj
C:\Users\jisuc\source\repos\SAD\x64\Release\SAD.ipdb
C:\Users\jisuc\source\repos\SAD\x64\Release\SAD.iobj
^C:\Users\jisuc\source\repos\SAD\SAD\SAD.vcxproj
C:\Users\jisuc\source\repos\SAD\x64\Release\SAD.ipdb
C:\Users\jisuc\source\repos\SAD\x64\Release\SAD.iobj
^C:\Users\jisuc\source\repos\SAD\SAD\SAD.vcxproj
C:\Users\jisuc\source\repos\SAD\x64\Release\SAD.ipdb
C:\Users\jisuc\source\repos\SAD\x64\Release\SAD.iobj
^C:\Users\jisuc\source\repos\SAD\SAD\SAD.vcxproj
C:\Users\jisuc\source\repos\SAD\x64\Release\SAD.ipdb
C:\Users\jisuc\source\repos\SAD\x64\Release\SAD.iobj
^C:\Users\jisuc\source\repos\SAD\SAD\SAD.vcxproj
C:\Users\jisuc\source\repos\SAD\x64\Release\SAD.ipdb
C:\Users\jisuc\source\repos\SAD\x64\Release\SAD.iobj
^C:\Users\jisuc\source\repos\SAD\SAD\SAD.vcxproj
C:\Users\jisuc\source\repos\SAD\x64\Release\SAD.ipdb
C:\Users\jisuc\source\repos\SAD\x64\Release\SAD.iobj
^C:\Users\jisuc\source\repos\SAD\SAD\SAD.vcxproj
C:\Users\jisuc\source\repos\SAD\x64\Release\SAD.ipdb
C:\Users\jisuc\source\repos\SAD\x64\Release\SAD.iobj
^C:\Users\jisuc\source\repos\SAD\SAD\SAD.vcxproj
C:\Users\jisuc\source\repos\SAD\x64\Release\SAD.ipdb
C:\Users\jisuc\source\repos\SAD\x64\Release\SAD.iobj
^C:\Users\jisuc\source\repos\SAD\SAD\SAD.vcxproj
C:\Users\jisuc\source\repos\SAD\x64\Release\SAD.ipdb
C:\Users\jisuc\source\repos\SAD\x64\Release\SAD.iobj
^C:\Users\jisuc\source\repos\SAD\SAD\SAD.vcxproj
C:\Users\jisuc\source\repos\SAD\x64\Release\SAD.ipdb
C:\Users\jisuc\source\repos\SAD\x64\Release\SAD.iobj
^C:\Users\jisuc\source\repos\SAD\SAD\SAD.vcxproj
C:\Users\jisuc\source\repos\SAD\x64\Release\SAD.ipdb
C:\Users\jisuc\source\repos\SAD\x64\Release\SAD.iobj
^C:\Users\jisuc\source\repos\SAD\SAD\SAD.vcxproj
C:\Users\jisuc\source\repos\SAD\x64\Release\SAD.ipdb
C:\Users\jisuc\source\repos\SAD\x64\Release\SAD.iobj
^C:\Users\jisuc\source\repos\SAD\SAD\SAD.vcxproj
C:\Users\jisuc\source\repos\SAD\x64\Release\SAD.ipdb
C:\Users\jisuc\source\repos\SAD\x64\Release\SAD.iobj
^C:\Users\jisuc\source\repos\SAD\SAD\SAD.vcxproj
C:\Users\jisuc\source\repos\SAD\x64\Release\SAD.ipdb
C:\Users\jisuc\source\repos\SAD\x64\Release\SAD.iobj
^C:\Users\jisuc\source\repos\SAD\SAD\SAD.vcxproj
C:\Users\jisuc\source\repos\SAD\x64\Release\SAD.ipdb
C:\Users\jisuc\source\repos\SAD\x64\Release\SAD.iobj
^C:\Users\jisuc\source\repos\SAD\SAD\SAD.vcxproj
C:\Users\jisuc\source\repos\SAD\x64\Release\SAD.ipdb
C:\Users\jisuc\source\repos\SAD\x64\Release\SAD.iobj
^C:\Users\jisuc\source\repos\SAD\SAD\SAD.vcxproj
C:\Users\jisuc\source\repos\SAD\x64\Release\SAD.ipdb
C:\Users\jisuc\source\repos\SAD\x64\Release\SAD.iobj
^C:\Users\jisuc\source\repos\SAD\SAD\SAD.vcxproj
C:\Users\jisuc\source\repos\SAD\x64\Release\SAD.ipdb
C:\Users\jisuc\source\repos\SAD\x64\Release\SAD.iobj
^C:\Users\jisuc\source\repos\SAD\SAD\SAD.vcxproj
C:\Users\jisuc\source\repos\SAD\x64\Release\SAD.ipdb
C:\Users\jisuc\source\repos\SAD\x64\Release\SAD.iobj
^C:\Users\jisuc\source\repos\SAD\SAD\SAD.vcxproj
C:\Users\jisuc\source\repos\SAD\x64\Release\SAD.ipdb
C:\Users\jisuc\source\repos\SAD\x64\Release\SAD.iobj
^C:\Users\jisuc\source\repos\SAD\SAD\SAD.vcxproj
C:\Users\jisuc\source\repos\SAD\x64\Release\SAD.ipdb
C:\Users\jisuc\source\repos\SAD\x64\Release\SAD.iobj
^C:\Users\jisuc\source\repos\SAD\SAD\SAD.vcxproj
C:\Users\jisuc\source\repos\SAD\x64\Release\SAD.ipdb
C:\Users\jisuc\source\repos\SAD\x64\Release\SAD.iobj
^C:\Users\jisuc\source\repos\SAD\SAD\SAD.vcxproj
C:\Users\jisuc\source\repos\SAD\x64\Release\SAD.ipdb
C:\Users\jisuc\source\repos\SAD\x64\Release\SAD.iobj
^C:\Users\jisuc\source\repos\SAD\SAD\SAD.vcxproj
C:\Users\jisuc\source\repos\SAD\x64\Release\SAD.ipdb
C:\Users\jisuc\source\repos\SAD\x64\Release\SAD.iobj
^C:\Users\jisuc\source\repos\SAD\SAD\SAD.vcxproj
C:\Users\jisuc\source\repos\SAD\x64\Release\SAD.ipdb
C:\Users\jisuc\source\repos\SAD\x64\Release\SAD.iobj
^C:\Users\jisuc\source\repos\SAD\SAD\SAD.vcxproj
C:\Users\jisuc\source\repos\SAD\x64\Release\SAD.ipdb
C:\Users\jisuc\source\repos\SAD\x64\Release\SAD.iobj
^C:\Users\jisuc\source\repos\SAD\SAD\SAD.vcxproj
C:\Users\jisuc\source\repos\SAD\x64\Release\SAD.ipdb
C:\Users\jisuc\source\repos\SAD\x64\Release\SAD.iobj
^C:\Users\jisuc\source\repos\SAD\SAD\SAD.vcxproj
C:\Users\jisuc\source\repos\SAD\x64\Release\SAD.ipdb
C:\Users\jisuc\source\repos\SAD\x64\Release\SAD.iobj
^C:\Users\jisuc\source\repos\SAD\SAD\SAD.vcxproj
C:\Users\jisuc\source\repos\SAD\x64\Release\SAD.ipdb
C:\Users\jisuc\source\repos\SAD\x64\Release\SAD.iobj
^C:\Users\jisuc\source\repos\SAD\SAD\SAD.vcxproj
C:\Users\jisuc\source\repos\SAD\x64\Release\SAD.ipdb
C:\Users\jisuc\source\repos\SAD\x64\Release\SAD.iobj
^C:\Users\jisuc\source\repos\SAD\SAD\SAD.vcxproj
C:\Users\jisuc\source\repos\SAD\x64\Release\SAD.ipdb
C:\Users\jisuc\source\repos\SAD\x64\Release\SAD.iobj
^C:\Users\jisuc\source\repos\SAD\SAD\SAD.vcxproj
C:\Users\jisuc\source\repos\SAD\x64\Release\SAD.ipdb
C:\Users\jisuc\source\repos\SAD\x64\Release\SAD.iobj
^C:\Users\jisuc\source\repos\SAD\SAD\SAD.vcxproj
C:\Users\jisuc\source\repos\SAD\x64\Release\SAD.ipdb
C:\Users\jisuc\source\repos\SAD\x64\Release\SAD.iobj
^C:\Users\jisuc\source\repos\SAD\SAD\SAD.vcxproj
C:\Users\jisuc\source\repos\SAD\x64\Release\SAD.ipdb
C:\Users\jisuc\source\repos\SAD\x64\Release\SAD.iobj
^C:\Users\jisuc\source\repos\SAD\SAD\SAD.vcxproj
C:\Users\jisuc\source\repos\SAD\x64\Release\SAD.ipdb
C:\Users\jisuc\source\repos\SAD\x64\Release\SAD.iobj
^C:\Users\jisuc\source\repos\SAD\SAD\SAD.vcxproj
C:\Users\jisuc\source\repos\SAD\x64\Release\SAD.ipdb
C:\Users\jisuc\source\repos\SAD\x64\Release\SAD.iobj
^C:\Users\jisuc\source\repos\SAD\SAD\SAD.vcxproj
C:\Users\jisuc\source\repos\SAD\x64\Release\SAD.ipdb
C:\Users\jisuc\source\repos\SAD\x64\Release\SAD.iobj
^C:\Users\jisuc\source\repos\SAD\SAD\SAD.vcxproj
C:\Users\jisuc\source\repos\SAD\x64\Release\SAD.ipdb
C:\Users\jisuc\source\repos\SAD\x64\Release\SAD.iobj
^C:\Users\jisuc\source\repos\SAD\SAD\SAD.vcxproj
C:\Users\jisuc\source\repos\SAD\x64\Release\SAD.ipdb
C:\Users\jisuc\source\repos\SAD\x64\Release\SAD.iobj
^C:\Users\jisuc\source\repos\SAD\SAD\SAD.vcxproj
C:\Users\jisuc\source\repos\SAD\x64\Release\SAD.ipdb
C:\Users\jisuc\source\repos\SAD\x64\Release\SAD.iobj
^C:\Users\jisuc\source\repos\SAD\SAD\SAD.vcxproj
C:\Users\jisuc\source\repos\SAD\x64\Release\SAD.ipdb
C:\Users\jisuc\source\repos\SAD\x64\Release\SAD.iobj
^C:\Users\jisuc\source\repos\SAD\SAD\SAD.vcxproj
C:\Users\jisuc\source\repos\SAD\x64\Release\SAD.ipdb
C:\Users\jisuc\source\repos\SAD\x64\Release\SAD.iobj
^C:\Users\jisuc\source\repos\SAD\SAD\SAD.vcxproj
C:\Users\jisuc\source\repos\SAD\x64\Release\SAD.ipdb
C:\Users\jisuc\source\repos\SAD\x64\Release\SAD.iobj
^C:\Users\jisuc\source\repos\SAD\SAD\SAD.vcxproj
C:\Users\jisuc\source\repos\SAD\x64\Release\SAD.ipdb
C:\Users\jisuc\source\repos\SAD\x64\Release\SAD.iobj
^C:\Users\jisuc\source\repos\SAD\SAD\SAD.vcxproj
C:\Users\jisuc\source\repos\SAD\x64\Release\SAD.ipdb
C:\Users\jisuc\source\repos\SAD\x64\Release\SAD.iobj
^C:\Users\jisuc\source\repos\SAD\SAD\SAD.vcxproj
C:\Users\jisuc\source\repos\SAD\x64\Release\SAD.ipdb
C:\Users\jisuc\source\repos\SAD\x64\Release\SAD.iobj
^C:\Users\jisuc\source\repos\SAD\SAD\SAD.vcxproj
C:\Users\jisuc\source\repos\SAD\x64\Release\SAD.ipdb
C:\Users\jisuc\source\repos\SAD\x64\Release\SAD.iobj
^C:\Users\jisuc\source\repos\SAD\SAD\SAD.vcxproj
C:\Users\jisuc\source\repos\SAD\x64\Release\SAD.ipdb
C:\Users\jisuc\source\repos\SAD\x64\Release\SAD.iobj
^C:\Users\jisuc\source\repos\SAD\SAD\SAD.vcxproj
C:\Users\jisuc\source\repos\SAD\x64\Release\SAD.ipdb
C:\Users\jisuc\source\repos\SAD\x64\Release\SAD.iobj
^C:\Users\jisuc\source\repos\SAD\SAD\SAD.vcxproj
C:\Users\jisuc\source\repos\SAD\x64\Release\SAD.ipdb
C:\Users\jisuc\source\repos\SAD\x64\Release\SAD.iobj
^C:\Users\jisuc\source\repos\SAD\SAD\SAD.vcxproj
C:\Users\jisuc\source\repos\SAD\x64\Release\SAD.ipdb
C:\Users\jisuc\source\repos\SAD\x64\Release\SAD.iobj
^C:\Users\jisuc\source\repos\SAD\SAD\SAD.vcxproj
C:\Users\jisuc\source\repos\SAD\x64\Release\SAD.ipdb
C:\Users\jisuc\source\repos\SAD\x64\Release\SAD.iobj
^C:\Users\jisuc\source\repos\SAD\SAD\SAD.vcxproj
C:\Users\jisuc\source\repos\SAD\x64\Release\SAD.ipdb
C:\Users\jisuc\source\repos\SAD\x64\Release\SAD.iobj
^C:\Users\jisuc\source\repos\SAD\SAD\SAD.vcxproj
C:\Users\jisuc\source\repos\SAD\x64\Release\SAD.ipdb
C:\Users\jisuc\source\repos\SAD\x64\Release\SAD.iobj
^C:\Users\jisuc\source\repos\SAD\SAD\SAD.vcxproj
C:\Users\jisuc\source\repos\SAD\x64\Release\SAD.ipdb
C:\Users\jisuc\source\repos\SAD\x64\Release\SAD.iobj
^C:\Users\jisuc\source\repos\SAD\SAD\SAD.vcxproj
C:\Users\jisuc\source\repos\SAD\x64\Release\SAD.ipdb
C:\Users\jisuc\source\repos\SAD\x64\Release\SAD.iobj
^C:\Users\jisuc\source\repos\SAD\SAD\SAD.vcxproj
C:\Users\jisuc\source\repos\SAD\x64\Release\SAD.ipdb
C:\Users\jisuc\source\repos\SAD\x64\Release\SAD.iobj
^C:\Users\jisuc\source\repos\SAD\SAD\SAD.vcxproj
C:\Users\jisuc\source\repos\SAD\x64\Release\SAD.ipdb
C:\Users\jisuc\source\repos\SAD\x64\Release\SAD.iobj
^C:\Users\jisuc\source\repos\SAD\SAD\SAD.vcxproj
C:\Users\jisuc\source\repos\SAD\x64\Release\SAD.ipdb
C:\Users\jisuc\source\repos\SAD\x64\Release\SAD.iobj
^C:\Users\jisuc\source\repos\SAD\SAD\SAD.vcxproj
C:\Users\jisuc\source\repos\SAD\x64\Release\SAD.ipdb
C:\Users\jisuc\source\repos\SAD\x64\Release\SAD.iobj
^C:\Users\jisuc\source\repos\SAD\SAD\SAD.vcxproj
C:\Users\jisuc\source\repos\SAD\x64\Release\SAD.ipdb
C:\Users\jisuc\source\repos\SAD\x64\Release\SAD.iobj
^C:\Users\jisuc\source\repos\SAD\SAD\SAD.vcxproj
C:\Users\jisuc\source\repos\SAD\x64\Release\SAD.ipdb
C:\Users\jisuc\source\repos\SAD\x64\Release\SAD.iobj
^C:\Users\jisuc\source\repos\SAD\SAD\SAD.vcxproj
C:\Users\jisuc\source\repos\SAD\x64\Release\SAD.ipdb
C:\Users\jisuc\source\repos\SAD\x64\Release\SAD.iobj
^C:\Users\jisuc\source\repos\SAD\SAD\SAD.vcxproj
C:\Users\jisuc\source\repos\SAD\x64\Release\SAD.ipdb
C:\Users\jisuc\source\repos\SAD\x64\Release\SAD.iobj
^C:\Users\jisuc\source\repos\SAD\SAD\SAD.vcxproj
C:\Users\jisuc\source\repos\SAD\x64\Release\SAD.ipdb
C:\Users\jisuc\source\repos\SAD\x64\Release\SAD.iobj
^C:\Users\jisuc\source\repos\SAD\SAD\SAD.vcxproj
C:\Users\jisuc\source\repos\SAD\x64\Release\SAD.ipdb
C:\Users\jisuc\source\repos\SAD\x64\Release\SAD.iobj
^C:\Users\jisuc\source\repos\SAD\SAD\SAD.vcxproj
C:\Users\jisuc\source\repos\SAD\x64\Release\SAD.ipdb
C:\Users\jisuc\source\repos\SAD\x64\Release\SAD.iobj
^C:\Users\jisuc\source\repos\SAD\SAD\SAD.vcxproj
C:\Users\jisuc\source\repos\SAD\x64\Release\SAD.ipdb
C:\Users\jisuc\source\repos\SAD\x64\Release\SAD.iobj
^C:\Users\jisuc\source\repos\SAD\SAD\SAD.vcxproj
C:\Users\jisuc\source\repos\SAD\x64\Release\SAD.ipdb
C:\Users\jisuc\source\repos\SAD\x64\Release\SAD.iobj
^C:\Users\jisuc\source\repos\SAD\SAD\SAD.vcxproj
C:\Users\jisuc\source\repos\SAD\x64\Release\SAD.ipdb
C:\Users\jisuc\source\repos\SAD\x64\Release\SAD.iobj
^C:\Users\jisuc\source\repos\SAD\SAD\SAD.vcxproj
C:\Users\jisuc\source\repos\SAD\x64\Release\SAD.ipdb
C:\Users\jisuc\source\repos\SAD\x64\Release\SAD.iobj
^C:\Users\jisuc\source\repos\SAD\SAD\SAD.vcxproj
C:\Users\jisuc\source\repos\SAD\x64\Release\SAD.ipdb
C:\Users\jisuc\source\repos\SAD\x64\Release\SAD.iobj
^C:\Users\jisuc\source\repos\SAD\SAD\SAD.vcxproj
C:\Users\jisuc\source\repos\SAD\x64\Release\SAD.ipdb
C:\Users\jisuc\source\repos\SAD\x64\Release\SAD.iobj
^C:\Users\jisuc\source\repos\SAD\SAD\SAD.vcxproj
C:\Users\jisuc\source\repos\SAD\x64\Release\SAD.ipdb
C:\Users\jisuc\source\repos\SAD\x64\Release\SAD.iobj
^C:\Users\jisuc\source\repos\SAD\SAD\SAD.vcxproj
C:\Users\jisuc\source\repos\SAD\x64\Release\SAD.ipdb
C:\Users\jisuc\source\repos\SAD\x64\Release\SAD.iobj
^C:\Users\jisuc\source\repos\SAD\SAD\SAD.vcxproj
C:\Users\jisuc\source\repos\SAD\x64\Release\SAD.ipdb
C:\Users\jisuc\source\repos\SAD\x64\Release\SAD.iobj
^C:\Users\jisuc\source\repos\SAD\SAD\SAD.vcxproj
C:\Users\jisuc\source\repos\SAD\x64\Release\SAD.ipdb
C:\Users\jisuc\source\repos\SAD\x64\Release\SAD.iobj
^C:\Users\jisuc\source\repos\SAD\SAD\SAD.vcxproj
C:\Users\jisuc\source\repos\SAD\x64\Release\SAD.ipdb
C:\Users\jisuc\source\repos\SAD\x64\Release\SAD.iobj
^C:\Users\jisuc\source\repos\SAD\SAD\SAD.vcxproj
C:\Users\jisuc\source\repos\SAD\x64\Release\SAD.ipdb
C:\Users\jisuc\source\repos\SAD\x64\Release\SAD.iobj
^C:\Users\jisuc\source\repos\SAD\SAD\SAD.vcxproj
C:\Users\jisuc\source\repos\SAD\x64\Release\SAD.ipdb
C:\Users\jisuc\source\repos\SAD\x64\Release\SAD.iobj
^C:\Users\jisuc\source\repos\SAD\SAD\SAD.vcxproj
C:\Users\jisuc\source\repos\SAD\x64\Release\SAD.ipdb
C:\Users\jisuc\source\repos\SAD\x64\Release\SAD.iobj
^C:\Users\jisuc\source\repos\SAD\SAD\SAD.vcxproj
C:\Users\jisuc\source\repos\SAD\x64\Release\SAD.ipdb
C:\Users\jisuc\source\repos\SAD\x64\Release\SAD.iobj
^C:\Users\jisuc\source\repos\SAD\SAD\SAD.vcxproj
C:\Users\jisuc\source\repos\SAD\x64\Release\SAD.ipdb
C:\Users\jisuc\source\repos\SAD\x64\Release\SAD.iobj
^C:\Users\jisuc\source\repos\SAD\SAD\SAD.vcxproj
C:\Users\jisuc\source\repos\SAD\x64\Release\SAD.ipdb
C:\Users\jisuc\source\repos\SAD\x64\Release\SAD.iobj
^C:\Users\jisuc\source\repos\SAD\SAD\SAD.vcxproj
C:\Users\jisuc\source\repos\SAD\x64\Release\SAD.ipdb
C:\Users\jisuc\source\repos\SAD\x64\Release\SAD.iobj
^C:\Users\jisuc\source\repos\SAD\SAD\SAD.vcxproj
C:\Users\jisuc\source\repos\SAD\x64\Release\SAD.ipdb
C:\Users\jisuc\source\repos\SAD\x64\Release\SAD.iobj
^C:\Users\jisuc\source\repos\SAD\SAD\SAD.vcxproj
C:\Users\jisuc\source\repos\SAD\x64\Release\SAD.ipdb
C:\Users\jisuc\source\repos\SAD\x64\Release\SAD.iobj
^C:\Users\jisuc\source\repos\SAD\SAD\SAD.vcxproj
C:\Users\jisuc\source\repos\SAD\x64\Release\SAD.ipdb
C:\Users\jisuc\source\repos\SAD\x64\Release\SAD.iobj
^C:\Users\jisuc\source\repos\SAD\SAD\SAD.vcxproj
C:\Users\jisuc\source\repos\SAD\x64\Release\SAD.ipdb
C:\Users\jisuc\source\repos\SAD\x64\Release\SAD.iobj
^C:\Users\jisuc\source\repos\SAD\SAD\SAD.vcxproj
C:\Users\jisuc\source\repos\SAD\x64\Release\SAD.ipdb
C:\Users\jisuc\source\repos\SAD\x64\Release\SAD.iobj
^C:\Users\jisuc\source\repos\SAD\SAD\SAD.vcxproj
C:\Users\jisuc\source\repos\SAD\x64\Release\SAD.ipdb
C:\Users\jisuc\source\repos\SAD\x64\Release\SAD.iobj
^C:\Users\jisuc\source\repos\SAD\SAD\SAD.vcxproj
C:\Users\jisuc\source\repos\SAD\x64\Release\SAD.ipdb
C:\Users\jisuc\source\repos\SAD\x64\Release\SAD.iobj
^C:\Users\jisuc\source\repos\SAD\SAD\SAD.vcxproj
C:\Users\jisuc\source\repos\SAD\x64\Release\SAD.ipdb
C:\Users\jisuc\source\repos\SAD\x64\Release\SAD.iobj
^C:\Users\jisuc\source\repos\SAD\SAD\SAD.vcxproj
C:\Users\jisuc\source\repos\SAD\x64\Release\SAD.ipdb
C:\Users\jisuc\source\repos\SAD\x64\Release\SAD.iobj
^C:\Users\jisuc\source\repos\SAD\SAD\SAD.vcxproj
C:\Users\jisuc\source\repos\SAD\x64\Release\SAD.ipdb
C:\Users\jisuc\source\repos\SAD\x64\Release\SAD.iobj
^C:\Users\jisuc\source\repos\SAD\SAD\SAD.vcxproj
C:\Users\jisuc\source\repos\SAD\x64\Release\SAD.ipdb
C:\Users\jisuc\source\repos\SAD\x64\Release\SAD.iobj
^C:\Users\jisuc\source\repos\SAD\SAD\SAD.vcxproj
C:\Users\jisuc\source\repos\SAD\x64\Release\SAD.ipdb
C:\Users\jisuc\source\repos\SAD\x64\Release\SAD.iobj
^C:\Users\jisuc\source\repos\SAD\SAD\SAD.vcxproj
C:\Users\jisuc\source\repos\SAD\x64\Release\SAD.ipdb
C:\Users\jisuc\source\repos\SAD\x64\Release\SAD.iobj
^C:\Users\jisuc\source\repos\SAD\SAD\SAD.vcxproj
C:\Users\jisuc\source\repos\SAD\x64\Release\SAD.ipdb
C:\Users\jisuc\source\repos\SAD\x64\Release\SAD.iobj
^C:\Users\jisuc\source\repos\SAD\SAD\SAD.vcxproj
C:\Users\jisuc\source\repos\SAD\x64\Release\SAD.ipdb
C:\Users\jisuc\source\repos\SAD\x64\Release\SAD.iobj
^C:\Users\jisuc\source\repos\SAD\SAD\SAD.vcxproj
C:\Users\jisuc\source\repos\SAD\x64\Release\SAD.ipdb
C:\Users\jisuc\source\repos\SAD\x64\Release\SAD.iobj
^C:\Users\jisuc\source\repos\SAD\SAD\SAD.vcxproj
C:\Users\jisuc\source\repos\SAD\x64\Release\SAD.ipdb
C:\Users\jisuc\source\repos\SAD\x64\Release\SAD.iobj
^C:\Users\jisuc\source\repos\SAD\SAD\SAD.vcxproj
C:\Users\jisuc\source\repos\SAD\x64\Release\SAD.ipdb
C:\Users\jisuc\source\repos\SAD\x64\Release\SAD.iobj
^C:\Users\jisuc\source\repos\SAD\SAD\SAD.vcxproj
C:\Users\jisuc\source\repos\SAD\x64\Release\SAD.ipdb
C:\Users\jisuc\source\repos\SAD\x64\Release\SAD.iobj
^C:\Users\jisuc\source\repos\SAD\SAD\SAD.vcxproj
C:\Users\jisuc\source\repos\SAD\x64\Release\SAD.ipdb
C:\Users\jisuc\source\repos\SAD\x64\Release\SAD.iobj
^C:\Users\jisuc\source\repos\SAD\SAD\SAD.vcxproj
C:\Users\jisuc\source\repos\SAD\x64\Release\SAD.ipdb
C:\Users\jisuc\source\repos\SAD\x64\Release\SAD.iobj
^C:\Users\jisuc\source\repos\SAD\SAD\SAD.vcxproj
C:\Users\jisuc\source\repos\SAD\x64\Release\SAD.ipdb
C:\Users\jisuc\source\repos\SAD\x64\Release\SAD.iobj
^C:\Users\jisuc\source\repos\SAD\SAD\SAD.vcxproj
C:\Users\jisuc\source\repos\SAD\x64\Release\SAD.ipdb
C:\Users\jisuc\source\repos\SAD\x64\Release\SAD.iobj
^C:\Users\jisuc\source\repos\SAD\SAD\SAD.vcxproj
C:\Users\jisuc\source\repos\SAD\x64\Release\SAD.ipdb
C:\Users\jisuc\source\repos\SAD\x64\Release\SAD.iobj
^C:\Users\jisuc\source\repos\SAD\SAD\SAD.vcxproj
C:\Users\jisuc\source\repos\SAD\x64\Release\SAD.ipdb
C:\Users\jisuc\source\repos\SAD\x64\Release\SAD.iobj
^C:\Users\jisuc\source\repos\SAD\SAD\SAD.vcxproj
C:\Users\jisuc\source\repos\SAD\x64\Release\SAD.ipdb
C:\Users\jisuc\source\repos\SAD\x64\Release\SAD.iobj
^C:\Users\jisuc\source\repos\SAD\SAD\SAD.vcxproj
C:\Users\jisuc\source\repos\SAD\x64\Release\SAD.ipdb
C:\Users\jisuc\source\repos\SAD\x64\Release\SAD.iobj
^C:\Users\jisuc\source\repos\SAD\SAD\SAD.vcxproj
C:\Users\jisuc\source\repos\SAD\x64\Release\SAD.ipdb
C:\Users\jisuc\source\repos\SAD\x64\Release\SAD.iobj
^C:\Users\jisuc\source\repos\SAD\SAD\SAD.vcxproj
C:\Users\jisuc\source\repos\SAD\x64\Release\SAD.ipdb
C:\Users\jisuc\source\repos\SAD\x64\Release\SAD.iobj
^C:\Users\jisuc\source\repos\SAD\SAD\SAD.vcxproj
C:\Users\jisuc\source\repos\SAD\x64\Release\SAD.ipdb
C:\Users\jisuc\source\repos\SAD\x64\Release\SAD.iobj
^C:\Users\jisuc\source\repos\SAD\SAD\SAD.vcxproj
C:\Users\jisuc\source\repos\SAD\x64\Release\SAD.ipdb
C:\Users\jisuc\source\repos\SAD\x64\Release\SAD.iobj
^C:\Users\jisuc\source\repos\SAD\SAD\SAD.vcxproj
C:\Users\jisuc\source\repos\SAD\x64\Release\SAD.ipdb
C:\Users\jisuc\source\repos\SAD\x64\Release\SAD.iobj
^C:\Users\jisuc\source\repos\SAD\SAD\SAD.vcxproj
C:\Users\jisuc\source\repos\SAD\x64\Release\SAD.ipdb
C:\Users\jisuc\source\repos\SAD\x64\Release\SAD.iobj
^C:\Users\jisuc\source\repos\SAD\SAD\SAD.vcxproj
C:\Users\jisuc\source\repos\SAD\x64\Release\SAD.ipdb
C:\Users\jisuc\source\repos\SAD\x64\Release\SAD.iobj
^C:\Users\jisuc\source\repos\SAD\SAD\SAD.vcxproj
C:\Users\jisuc\source\repos\SAD\x64\Release\SAD.ipdb
C:\Users\jisuc\source\repos\SAD\x64\Release\SAD.iobj
^C:\Users\jisuc\source\repos\SAD\SAD\SAD.vcxproj
C:\Users\jisuc\source\repos\SAD\x64\Release\SAD.ipdb
C:\Users\jisuc\source\repos\SAD\x64\Release\SAD.iobj
^C:\Users\jisuc\source\repos\SAD\SAD\SAD.vcxproj
C:\Users\jisuc\source\repos\SAD\x64\Release\SAD.ipdb
C:\Users\jisuc\source\repos\SAD\x64\Release\SAD.iobj
^C:\Users\jisuc\source\repos\SAD\SAD\SAD.vcxproj
C:\Users\jisuc\source\repos\SAD\x64\Release\SAD.ipdb
C:\Users\jisuc\source\repos\SAD\x64\Release\SAD.iobj
^C:\Users\jisuc\source\repos\SAD\SAD\SAD.vcxproj
C:\Users\jisuc\source\repos\SAD\x64\Release\SAD.ipdb
C:\Users\jisuc\source\repos\SAD\x64\Release\SAD.iobj
^C:\Users\jisuc\source\repos\SAD\SAD\SAD.vcxproj
C:\Users\jisuc\source\repos\SAD\x64\Release\SAD.ipdb
C:\Users\jisuc\source\repos\SAD\x64\Release\SAD.iobj
^C:\Users\jisuc\source\repos\SAD\SAD\SAD.vcxproj
C:\Users\jisuc\source\repos\SAD\x64\Release\SAD.ipdb
C:\Users\jisuc\source\repos\SAD\x64\Release\SAD.iobj
^C:\Users\jisuc\source\repos\SAD\SAD\SAD.vcxproj
C:\Users\jisuc\source\repos\SAD\x64\Release\SAD.ipdb
C:\Users\jisuc\source\repos\SAD\x64\Release\SAD.iobj
^C:\Users\jisuc\source\repos\SAD\SAD\SAD.vcxproj
C:\Users\jisuc\source\repos\SAD\x64\Release\SAD.ipdb
C:\Users\jisuc\source\repos\SAD\x64\Release\SAD.iobj
^C:\Users\jisuc\source\repos\SAD\SAD\SAD.vcxproj
C:\Users\jisuc\source\repos\SAD\x64\Release\SAD.ipdb
C:\Users\jisuc\source\repos\SAD\x64\Release\SAD.iobj
^C:\Users\jisuc\source\repos\SAD\SAD\SAD.vcxproj
C:\Users\jisuc\source\repos\SAD\x64\Release\SAD.ipdb
C:\Users\jisuc\source\repos\SAD\x64\Release\SAD.iobj
^C:\Users\jisuc\source\repos\SAD\SAD\SAD.vcxproj
C:\Users\jisuc\source\repos\SAD\x64\Release\SAD.ipdb
C:\Users\jisuc\source\repos\SAD\x64\Release\SAD.iobj
^C:\Users\jisuc\source\repos\SAD\SAD\SAD.vcxproj
C:\Users\jisuc\source\repos\SAD\x64\Release\SAD.ipdb
C:\Users\jisuc\source\repos\SAD\x64\Release\SAD.iobj
^C:\Users\jisuc\source\repos\SAD\SAD\SAD.vcxproj
C:\Users\jisuc\source\repos\SAD\x64\Release\SAD.ipdb
C:\Users\jisuc\source\repos\SAD\x64\Release\SAD.iobj
^C:\Users\jisuc\source\repos\SAD\SAD\SAD.vcxproj
C:\Users\jisuc\source\repos\SAD\x64\Release\SAD.ipdb
C:\Users\jisuc\source\repos\SAD\x64\Release\SAD.iobj
^C:\Users\jisuc\source\repos\SAD\SAD\SAD.vcxproj
C:\Users\jisuc\source\repos\SAD\x64\Release\SAD.ipdb
C:\Users\jisuc\source\repos\SAD\x64\Release\SAD.iobj
^C:\Users\jisuc\source\repos\SAD\SAD\SAD.vcxproj
C:\Users\jisuc\source\repos\SAD\x64\Release\SAD.ipdb
C:\Users\jisuc\source\repos\SAD\x64\Release\SAD.iobj
^C:\Users\jisuc\source\repos\SAD\SAD\SAD.vcxproj
C:\Users\jisuc\source\repos\SAD\x64\Release\SAD.ipdb
C:\Users\jisuc\source\repos\SAD\x64\Release\SAD.iobj
^C:\Users\jisuc\source\repos\SAD\SAD\SAD.vcxproj
C:\Users\jisuc\source\repos\SAD\x64\Release\SAD.ipdb
C:\Users\jisuc\source\repos\SAD\x64\Release\SAD.iobj
^C:\Users\jisuc\source\repos\SAD\SAD\SAD.vcxproj
C:\Users\jisuc\source\repos\SAD\x64\Release\SAD.ipdb
C:\Users\jisuc\source\repos\SAD\x64\Release\SAD.iobj
^C:\Users\jisuc\source\repos\SAD\SAD\SAD.vcxproj
C:\Users\jisuc\source\repos\SAD\x64\Release\SAD.ipdb
C:\Users\jisuc\source\repos\SAD\x64\Release\SAD.iobj
^C:\Users\jisuc\source\repos\SAD\SAD\SAD.vcxproj
C:\Users\jisuc\source\repos\SAD\x64\Release\SAD.ipdb
C:\Users\jisuc\source\repos\SAD\x64\Release\SAD.iobj
^C:\Users\jisuc\source\repos\SAD\SAD\SAD.vcxproj
C:\Users\jisuc\source\repos\SAD\x64\Release\SAD.ipdb
C:\Users\jisuc\source\repos\SAD\x64\Release\SAD.iobj
^C:\Users\jisuc\source\repos\SAD\SAD\SAD.vcxproj
C:\Users\jisuc\source\repos\SAD\x64\Release\SAD.ipdb
C:\Users\jisuc\source\repos\SAD\x64\Release\SAD.iobj
^C:\Users\jisuc\source\repos\SAD\SAD\SAD.vcxproj
C:\Users\jisuc\source\repos\SAD\x64\Release\SAD.ipdb
C:\Users\jisuc\source\repos\SAD\x64\Release\SAD.iobj
^C:\Users\jisuc\source\repos\SAD\SAD\SAD.vcxproj
C:\Users\jisuc\source\repos\SAD\x64\Release\SAD.ipdb
C:\Users\jisuc\source\repos\SAD\x64\Release\SAD.iobj
^C:\Users\jisuc\source\repos\SAD\SAD\SAD.vcxproj
C:\Users\jisuc\source\repos\SAD\x64\Release\SAD.ipdb
C:\Users\jisuc\source\repos\SAD\x64\Release\SAD.iobj
^C:\Users\jisuc\source\repos\SAD\SAD\SAD.vcxproj
C:\Users\jisuc\source\repos\SAD\x64\Release\SAD.ipdb
C:\Users\jisuc\source\repos\SAD\x64\Release\SAD.iobj
^C:\Users\jisuc\source\repos\SAD\SAD\SAD.vcxproj
C:\Users\jisuc\source\repos\SAD\x64\Release\SAD.ipdb
C:\Users\jisuc\source\repos\SAD\x64\Release\SAD.iobj
^C:\Users\jisuc\source\repos\SAD\SAD\SAD.vcxproj
C:\Users\jisuc\source\repos\SAD\x64\Release\SAD.ipdb
C:\Users\jisuc\source\repos\SAD\x64\Release\SAD.iobj
^C:\Users\jisuc\source\repos\SAD\SAD\SAD.vcxproj
C:\Users\jisuc\source\repos\SAD\x64\Release\SAD.ipdb
C:\Users\jisuc\source\repos\SAD\x64\Release\SAD.iobj
^C:\Users\jisuc\source\repos\SAD\SAD\SAD.vcxproj
C:\Users\jisuc\source\repos\SAD\x64\Release\SAD.ipdb
C:\Users\jisuc\source\repos\SAD\x64\Release\SAD.iobj
^C:\Users\jisuc\source\repos\SAD\SAD\SAD.vcxproj
C:\Users\jisuc\source\repos\SAD\x64\Release\SAD.ipdb
C:\Users\jisuc\source\repos\SAD\x64\Release\SAD.iobj
^C:\Users\jisuc\source\repos\SAD\SAD\SAD.vcxproj
C:\Users\jisuc\source\repos\SAD\x64\Release\SAD.ipdb
C:\Users\jisuc\source\repos\SAD\x64\Release\SAD.iobj
^C:\Users\jisuc\source\repos\SAD\SAD\SAD.vcxproj
C:\Users\jisuc\source\repos\SAD\x64\Release\SAD.ipdb
C:\Users\jisuc\source\repos\SAD\x64\Release\SAD.iobj
^C:\Users\jisuc\source\repos\SAD\SAD\SAD.vcxproj
C:\Users\jisuc\source\repos\SAD\x64\Release\SAD.ipdb
C:\Users\jisuc\source\repos\SAD\x64\Release\SAD.iobj
^C:\Users\jisuc\source\repos\SAD\SAD\SAD.vcxproj
C:\Users\jisuc\source\repos\SAD\x64\Release\SAD.ipdb
C:\Users\jisuc\source\repos\SAD\x64\Release\SAD.iobj
^C:\Users\jisuc\source\repos\SAD\SAD\SAD.vcxproj
C:\Users\jisuc\source\repos\SAD\x64\Release\SAD.ipdb
C:\Users\jisuc\source\repos\SAD\x64\Release\SAD.iobj
^C:\Users\jisuc\source\repos\SAD\SAD\SAD.vcxproj
C:\Users\jisuc\source\repos\SAD\x64\Release\SAD.ipdb
C:\Users\jisuc\source\repos\SAD\x64\Release\SAD.iobj
^C:\Users\jisuc\source\repos\SAD\SAD\SAD.vcxproj
C:\Users\jisuc\source\repos\SAD\x64\Release\SAD.ipdb
C:\Users\jisuc\source\repos\SAD\x64\Release\SAD.iobj
^C:\Users\jisuc\source\repos\SAD\SAD\SAD.vcxproj
C:\Users\jisuc\source\repos\SAD\x64\Release\SAD.ipdb
C:\Users\jisuc\source\repos\SAD\x64\Release\SAD.iobj
^C:\Users\jisuc\source\repos\SAD\SAD\SAD.vcxproj
C:\Users\jisuc\source\repos\SAD\x64\Release\SAD.ipdb
C:\Users\jisuc\source\repos\SAD\x64\Release\SAD.iobj
^C:\Users\jisuc\source\repos\SAD\SAD\SAD.vcxproj
C:\Users\jisuc\source\repos\SAD\x64\Release\SAD.ipdb
C:\Users\jisuc\source\repos\SAD\x64\Release\SAD.iobj
^C:\Users\jisuc\source\repos\SAD\SAD\SAD.vcxproj
C:\Users\jisuc\source\repos\SAD\x64\Release\SAD.ipdb
C:\Users\jisuc\source\repos\SAD\x64\Release\SAD.iobj
^C:\Users\jisuc\source\repos\SAD\SAD\SAD.vcxproj
C:\Users\jisuc\source\repos\SAD\x64\Release\SAD.ipdb
C:\Users\jisuc\source\repos\SAD\x64\Release\SAD.iobj
^C:\Users\jisuc\source\repos\SAD\SAD\SAD.vcxproj
C:\Users\jisuc\source\repos\SAD\x64\Release\SAD.ipdb
C:\Users\jisuc\source\repos\SAD\x64\Release\SAD.iobj
^C:\Users\jisuc\source\repos\SAD\SAD\SAD.vcxproj
C:\Users\jisuc\source\repos\SAD\x64\Release\SAD.ipdb
C:\Users\jisuc\source\repos\SAD\x64\Release\SAD.iobj
^C:\Users\jisuc\source\repos\SAD\SAD\SAD.vcxproj
C:\Users\jisuc\source\repos\SAD\x64\Release\SAD.ipdb
C:\Users\jisuc\source\repos\SAD\x64\Release\SAD.iobj
^C:\Users\jisuc\source\repos\SAD\SAD\SAD.vcxproj
C:\Users\jisuc\source\repos\SAD\x64\Release\SAD.ipdb
C:\Users\jisuc\source\repos\SAD\x64\Release\SAD.iobj
^C:\Users\jisuc\source\repos\SAD\SAD\SAD.vcxproj
C:\Users\jisuc\source\repos\SAD\x64\Release\SAD.ipdb
C:\Users\jisuc\source\repos\SAD\x64\Release\SAD.iobj
^C:\Users\jisuc\source\repos\SAD\SAD\SAD.vcxproj
C:\Users\jisuc\source\repos\SAD\x64\Release\SAD.ipdb
C:\Users\jisuc\source\repos\SAD\x64\Release\SAD.iobj
^C:\Users\jisuc\source\repos\SAD\SAD\SAD.vcxproj
C:\Users\jisuc\source\repos\SAD\x64\Release\SAD.ipdb
C:\Users\jisuc\source\repos\SAD\x64\Release\SAD.iobj
^C:\Users\jisuc\source\repos\SAD\SAD\SAD.vcxproj
C:\Users\jisuc\source\repos\SAD\x64\Release\SAD.ipdb
C:\Users\jisuc\source\repos\SAD\x64\Release\SAD.iobj
^C:\Users\jisuc\source\repos\SAD\SAD\SAD.vcxproj
C:\Users\jisuc\source\repos\SAD\x64\Release\SAD.ipdb
C:\Users\jisuc\source\repos\SAD\x64\Release\SAD.iobj
^C:\Users\jisuc\source\repos\SAD\SAD\SAD.vcxproj
C:\Users\jisuc\source\repos\SAD\x64\Release\SAD.ipdb
C:\Users\jisuc\source\repos\SAD\x64\Release\SAD.iobj
^C:\Users\jisuc\source\repos\SAD\SAD\SAD.vcxproj
C:\Users\jisuc\source\repos\SAD\x64\Release\SAD.ipdb
C:\Users\jisuc\source\repos\SAD\x64\Release\SAD.iobj
^C:\Users\jisuc\source\repos\SAD\SAD\SAD.vcxproj
C:\Users\jisuc\source\repos\SAD\x64\Release\SAD.ipdb
C:\Users\jisuc\source\repos\SAD\x64\Release\SAD.iobj
^C:\Users\jisuc\source\repos\SAD\SAD\SAD.vcxproj
C:\Users\jisuc\source\repos\SAD\x64\Release\SAD.ipdb
C:\Users\jisuc\source\repos\SAD\x64\Release\SAD.iobj
^C:\Users\jisuc\source\repos\SAD\SAD\SAD.vcxproj
C:\Users\jisuc\source\repos\SAD\x64\Release\SAD.ipdb
C:\Users\jisuc\source\repos\SAD\x64\Release\SAD.iobj
^C:\Users\jisuc\source\repos\SAD\SAD\SAD.vcxproj
C:\Users\jisuc\source\repos\SAD\x64\Release\SAD.ipdb
C:\Users\jisuc\source\repos\SAD\x64\Release\SAD.iobj
^C:\Users\jisuc\source\repos\SAD\SAD\SAD.vcxproj
C:\Users\jisuc\source\repos\SAD\x64\Release\SAD.ipdb
C:\Users\jisuc\source\repos\SAD\x64\Release\SAD.iobj
^C:\Users\jisuc\source\repos\SAD\SAD\SAD.vcxproj
C:\Users\jisuc\source\repos\SAD\x64\Release\SAD.ipdb
C:\Users\jisuc\source\repos\SAD\x64\Release\SAD.iobj
^C:\Users\jisuc\source\repos\SAD\SAD\SAD.vcxproj
C:\Users\jisuc\source\repos\SAD\x64\Release\SAD.ipdb
C:\Users\jisuc\source\repos\SAD\x64\Release\SAD.iobj
^C:\Users\jisuc\source\repos\SAD\SAD\SAD.vcxproj
C:\Users\jisuc\source\repos\SAD\x64\Release\SAD.ipdb
C:\Users\jisuc\source\repos\SAD\x64\Release\SAD.iobj
^C:\Users\jisuc\source\repos\SAD\SAD\SAD.vcxproj
C:\Users\jisuc\source\repos\SAD\x64\Release\SAD.ipdb
C:\Users\jisuc\source\repos\SAD\x64\Release\SAD.iobj
^C:\Users\jisuc\source\repos\SAD\SAD\SAD.vcxproj
C:\Users\jisuc\source\repos\SAD\x64\Release\SAD.ipdb
C:\Users\jisuc\source\repos\SAD\x64\Release\SAD.iobj
^C:\Users\jisuc\source\repos\SAD\SAD\SAD.vcxproj
C:\Users\jisuc\source\repos\SAD\x64\Release\SAD.ipdb
C:\Users\jisuc\source\repos\SAD\x64\Release\SAD.iobj
^C:\Users\jisuc\source\repos\SAD\SAD\SAD.vcxproj
C:\Users\jisuc\source\repos\SAD\x64\Release\SAD.ipdb
C:\Users\jisuc\source\repos\SAD\x64\Release\SAD.iobj
^C:\Users\jisuc\source\repos\SAD\SAD\SAD.vcxproj
C:\Users\jisuc\source\repos\SAD\x64\Release\SAD.ipdb
C:\Users\jisuc\source\repos\SAD\x64\Release\SAD.iobj
^C:\Users\jisuc\source\repos\SAD\SAD\SAD.vcxproj
C:\Users\jisuc\source\repos\SAD\x64\Release\SAD.ipdb
C:\Users\jisuc\source\repos\SAD\x64\Release\SAD.iobj
^C:\Users\jisuc\source\repos\SAD\SAD\SAD.vcxproj
C:\Users\jisuc\source\repos\SAD\x64\Release\SAD.ipdb
C:\Users\jisuc\source\repos\SAD\x64\Release\SAD.iobj
^C:\Users\jisuc\source\repos\SAD\SAD\SAD.vcxproj
C:\Users\jisuc\source\repos\SAD\x64\Release\SAD.ipdb
C:\Users\jisuc\source\repos\SAD\x64\Release\SAD.iobj
^C:\Users\jisuc\source\repos\SAD\SAD\SAD.vcxproj
C:\Users\jisuc\source\repos\SAD\x64\Release\SAD.ipdb
C:\Users\jisuc\source\repos\SAD\x64\Release\SAD.iobj
^C:\Users\jisuc\source\repos\SAD\SAD\SAD.vcxproj
C:\Users\jisuc\source\repos\SAD\x64\Release\SAD.ipdb
C:\Users\jisuc\source\repos\SAD\x64\Release\SAD.iobj
^C:\Users\jisuc\source\repos\SAD\SAD\SAD.vcxproj
C:\Users\jisuc\source\repos\SAD\x64\Release\SAD.ipdb
C:\Users\jisuc\source\repos\SAD\x64\Release\SAD.iobj
^C:\Users\jisuc\source\repos\SAD\SAD\SAD.vcxproj
C:\Users\jisuc\source\repos\SAD\x64\Release\SAD.ipdb
C:\Users\jisuc\source\repos\SAD\x64\Release\SAD.iobj
^C:\Users\jisuc\source\repos\SAD\SAD\SAD.vcxproj
C:\Users\jisuc\source\repos\SAD\x64\Release\SAD.ipdb
C:\Users\jisuc\source\repos\SAD\x64\Release\SAD.iobj
^C:\Users\jisuc\source\repos\SAD\SAD\SAD.vcxproj
C:\Users\jisuc\source\repos\SAD\x64\Release\SAD.ipdb
C:\Users\jisuc\source\repos\SAD\x64\Release\SAD.iobj
^C:\Users\jisuc\source\repos\SAD\SAD\SAD.vcxproj
C:\Users\jisuc\source\repos\SAD\x64\Release\SAD.ipdb
C:\Users\jisuc\source\repos\SAD\x64\Release\SAD.iobj
^C:\Users\jisuc\source\repos\SAD\SAD\SAD.vcxproj
C:\Users\jisuc\source\repos\SAD\x64\Release\SAD.ipdb
C:\Users\jisuc\source\repos\SAD\x64\Release\SAD.iobj
^C:\Users\jisuc\source\repos\SAD\SAD\SAD.vcxproj
C:\Users\jisuc\source\repos\SAD\x64\Release\SAD.ipdb
C:\Users\jisuc\source\repos\SAD\x64\Release\SAD.iobj
^C:\Users\jisuc\source\repos\SAD\SAD\SAD.vcxproj
C:\Users\jisuc\source\repos\SAD\x64\Release\SAD.ipdb
C:\Users\jisuc\source\repos\SAD\x64\Release\SAD.iobj
^C:\Users\jisuc\source\repos\SAD\SAD\SAD.vcxproj
C:\Users\jisuc\source\repos\SAD\x64\Release\SAD.ipdb
C:\Users\jisuc\source\repos\SAD\x64\Release\SAD.iobj
^C:\Users\jisuc\source\repos\SAD\SAD\SAD.vcxproj
C:\Users\jisuc\source\repos\SAD\x64\Release\SAD.ipdb
C:\Users\jisuc\source\repos\SAD\x64\Release\SAD.iobj
^C:\Users\jisuc\source\repos\SAD\SAD\SAD.vcxproj
C:\Users\jisuc\source\repos\SAD\x64\Release\SAD.ipdb
C:\Users\jisuc\source\repos\SAD\x64\Release\SAD.iobj
^C:\Users\jisuc\source\repos\SAD\SAD\SAD.vcxproj
C:\Users\jisuc\source\repos\SAD\x64\Release\SAD.ipdb
C:\Users\jisuc\source\repos\SAD\x64\Release\SAD.iobj
^C:\Users\jisuc\source\repos\SAD\SAD\SAD.vcxproj
C:\Users\jisuc\source\repos\SAD\x64\Release\SAD.ipdb
C:\Users\jisuc\source\repos\SAD\x64\Release\SAD.iobj
^C:\Users\jisuc\source\repos\SAD\SAD\SAD.vcxproj
C:\Users\jisuc\source\repos\SAD\x64\Release\SAD.ipdb
C:\Users\jisuc\source\repos\SAD\x64\Release\SAD.iobj
^C:\Users\jisuc\source\repos\SAD\SAD\SAD.vcxproj
C:\Users\jisuc\source\repos\SAD\x64\Release\SAD.ipdb
C:\Users\jisuc\source\repos\SAD\x64\Release\SAD.iobj
^C:\Users\jisuc\source\repos\SAD\SAD\SAD.vcxproj
C:\Users\jisuc\source\repos\SAD\x64\Release\SAD.ipdb
C:\Users\jisuc\source\repos\SAD\x64\Release\SAD.iobj
^C:\Users\jisuc\source\repos\SAD\SAD\SAD.vcxproj
C:\Users\jisuc\source\repos\SAD\x64\Release\SAD.ipdb
C:\Users\jisuc\source\repos\SAD\x64\Release\SAD.iobj
^C:\Users\jisuc\source\repos\SAD\SAD\SAD.vcxproj
C:\Users\jisuc\source\repos\SAD\x64\Release\SAD.ipdb
C:\Users\jisuc\source\repos\SAD\x64\Release\SAD.iobj
^C:\Users\jisuc\source\repos\SAD\SAD\SAD.vcxproj
C:\Users\jisuc\source\repos\SAD\x64\Release\SAD.ipdb
C:\Users\jisuc\source\repos\SAD\x64\Release\SAD.iobj
^C:\Users\jisuc\source\repos\SAD\SAD\SAD.vcxproj
C:\Users\jisuc\source\repos\SAD\x64\Release\SAD.ipdb
C:\Users\jisuc\source\repos\SAD\x64\Release\SAD.iobj
^C:\Users\jisuc\source\repos\SAD\SAD\SAD.vcxproj
C:\Users\jisuc\source\repos\SAD\x64\Release\SAD.ipdb
C:\Users\jisuc\source\repos\SAD\x64\Release\SAD.iobj
^C:\Users\jisuc\source\repos\SAD\SAD\SAD.vcxproj
C:\Users\jisuc\source\repos\SAD\x64\Release\SAD.ipdb
C:\Users\jisuc\source\repos\SAD\x64\Release\SAD.iobj
^C:\Users\jisuc\source\repos\SAD\SAD\SAD.vcxproj
C:\Users\jisuc\source\repos\SAD\x64\Release\SAD.ipdb
C:\Users\jisuc\source\repos\SAD\x64\Release\SAD.iobj
^C:\Users\jisuc\source\repos\SAD\SAD\SAD.vcxproj
C:\Users\jisuc\source\repos\SAD\x64\Release\SAD.ipdb
C:\Users\jisuc\source\repos\SAD\x64\Release\SAD.iobj
^C:\Users\jisuc\source\repos\SAD\SAD\SAD.vcxproj
C:\Users\jisuc\source\repos\SAD\x64\Release\SAD.ipdb
C:\Users\jisuc\source\repos\SAD\x64\Release\SAD.iobj
^C:\Users\jisuc\source\repos\SAD\SAD\SAD.vcxproj
C:\Users\jisuc\source\repos\SAD\x64\Release\SAD.ipdb
C:\Users\jisuc\source\repos\SAD\x64\Release\SAD.iobj
^C:\Users\jisuc\source\repos\SAD\SAD\SAD.vcxproj
C:\Users\jisuc\source\repos\SAD\x64\Release\SAD.ipdb
C:\Users\jisuc\source\repos\SAD\x64\Release\SAD.iobj
^C:\Users\jisuc\source\repos\SAD\SAD\SAD.vcxproj
C:\Users\jisuc\source\repos\SAD\x64\Release\SAD.ipdb
C:\Users\jisuc\source\repos\SAD\x64\Release\SAD.iobj
^C:\Users\jisuc\source\repos\SAD\SAD\SAD.vcxproj
C:\Users\jisuc\source\repos\SAD\x64\Release\SAD.ipdb
C:\Users\jisuc\source\repos\SAD\x64\Release\SAD.iobj
^C:\Users\jisuc\source\repos\SAD\SAD\SAD.vcxproj
C:\Users\jisuc\source\repos\SAD\x64\Release\SAD.ipdb
C:\Users\jisuc\source\repos\SAD\x64\Release\SAD.iobj
^C:\Users\jisuc\source\repos\SAD\SAD\SAD.vcxproj
C:\Users\jisuc\source\repos\SAD\x64\Release\SAD.ipdb
C:\Users\jisuc\source\repos\SAD\x64\Release\SAD.iobj
^C:\Users\jisuc\source\repos\SAD\SAD\SAD.vcxproj
C:\Users\jisuc\source\repos\SAD\x64\Release\SAD.ipdb
C:\Users\jisuc\source\repos\SAD\x64\Release\SAD.iobj
^C:\Users\jisuc\source\repos\SAD\SAD\SAD.vcxproj
C:\Users\jisuc\source\repos\SAD\x64\Release\SAD.ipdb
C:\Users\jisuc\source\repos\SAD\x64\Release\SAD.iobj
^C:\Users\jisuc\source\repos\SAD\SAD\SAD.vcxproj
C:\Users\jisuc\source\repos\SAD\x64\Release\SAD.ipdb
C:\Users\jisuc\source\repos\SAD\x64\Release\SAD.iobj
^C:\Users\jisuc\source\repos\SAD\SAD\SAD.vcxproj
C:\Users\jisuc\source\repos\SAD\x64\Release\SAD.ipdb
C:\Users\jisuc\source\repos\SAD\x64\Release\SAD.iobj
^C:\Users\jisuc\source\repos\SAD\SAD\SAD.vcxproj
C:\Users\jisuc\source\repos\SAD\x64\Release\SAD.ipdb
C:\Users\jisuc\source\repos\SAD\x64\Release\SAD.iobj
^C:\Users\jisuc\source\repos\SAD\SAD\SAD.vcxproj
C:\Users\jisuc\source\repos\SAD\x64\Release\SAD.ipdb
C:\Users\jisuc\source\repos\SAD\x64\Release\SAD.iobj
^C:\Users\jisuc\source\repos\SAD\SAD\SAD.vcxproj
C:\Users\jisuc\source\repos\SAD\x64\Release\SAD.ipdb
C:\Users\jisuc\source\repos\SAD\x64\Release\SAD.iobj
^C:\Users\jisuc\source\repos\SAD\SAD\SAD.vcxproj
C:\Users\jisuc\source\repos\SAD\x64\Release\SAD.ipdb
C:\Users\jisuc\source\repos\SAD\x64\Release\SAD.iobj
^C:\Users\jisuc\source\repos\SAD\SAD\SAD.vcxproj
C:\Users\jisuc\source\repos\SAD\x64\Release\SAD.ipdb
C:\Users\jisuc\source\repos\SAD\x64\Release\SAD.iobj
^C:\Users\jisuc\source\repos\SAD\SAD\SAD.vcxproj
C:\Users\jisuc\source\repos\SAD\x64\Release\SAD.ipdb
C:\Users\jisuc\source\repos\SAD\x64\Release\SAD.iobj
^C:\Users\jisuc\source\repos\SAD\SAD\SAD.vcxproj
C:\Users\jisuc\source\repos\SAD\x64\Release\SAD.ipdb
C:\Users\jisuc\source\repos\SAD\x64\Release\SAD.iobj
^C:\Users\jisuc\source\repos\SAD\SAD\SAD.vcxproj
C:\Users\jisuc\source\repos\SAD\x64\Release\SAD.ipdb
C:\Users\jisuc\source\repos\SAD\x64\Release\SAD.iobj
^C:\Users\jisuc\source\repos\SAD\SAD\SAD.vcxproj
C:\Users\jisuc\source\repos\SAD\x64\Release\SAD.ipdb
C:\Users\jisuc\source\repos\SAD\x64\Release\SAD.iobj
^C:\Users\jisuc\source\repos\SAD\SAD\SAD.vcxproj
C:\Users\jisuc\source\repos\SAD\x64\Release\SAD.ipdb
C:\Users\jisuc\source\repos\SAD\x64\Release\SAD.iobj
^C:\Users\jisuc\source\repos\SAD\SAD\SAD.vcxproj
C:\Users\jisuc\source\repos\SAD\x64\Release\SAD.ipdb
C:\Users\jisuc\source\repos\SAD\x64\Release\SAD.iobj
^C:\Users\jisuc\source\repos\SAD\SAD\SAD.vcxproj
C:\Users\jisuc\source\repos\SAD\x64\Release\SAD.ipdb
C:\Users\jisuc\source\repos\SAD\x64\Release\SAD.iobj
^C:\Users\jisuc\source\repos\SAD\SAD\SAD.vcxproj
C:\Users\jisuc\source\repos\SAD\x64\Release\SAD.ipdb
C:\Users\jisuc\source\repos\SAD\x64\Release\SAD.iobj
^C:\Users\jisuc\source\repos\SAD\SAD\SAD.vcxproj
C:\Users\jisuc\source\repos\SAD\x64\Release\SAD.ipdb
C:\Users\jisuc\source\repos\SAD\x64\Release\SAD.iobj
^C:\Users\jisuc\source\repos\SAD\SAD\SAD.vcxproj
C:\Users\jisuc\source\repos\SAD\x64\Release\SAD.ipdb
C:\Users\jisuc\source\repos\SAD\x64\Release\SAD.iobj
^C:\Users\jisuc\source\repos\SAD\SAD\SAD.vcxproj
C:\Users\jisuc\source\repos\SAD\x64\Release\SAD.ipdb
C:\Users\jisuc\source\repos\SAD\x64\Release\SAD.iobj
^C:\Users\jisuc\source\repos\SAD\SAD\SAD.vcxproj
C:\Users\jisuc\source\repos\SAD\x64\Release\SAD.ipdb
C:\Users\jisuc\source\repos\SAD\x64\Release\SAD.iobj
^C:\Users\jisuc\source\repos\SAD\SAD\SAD.vcxproj
C:\Users\jisuc\source\repos\SAD\x64\Release\SAD.ipdb
C:\Users\jisuc\source\repos\SAD\x64\Release\SAD.iobj
^C:\Users\jisuc\source\repos\SAD\SAD\SAD.vcxproj
C:\Users\jisuc\source\repos\SAD\x64\Release\SAD.ipdb
C:\Users\jisuc\source\repos\SAD\x64\Release\SAD.iobj
